{
	"hydra_config": "git@gitlab.com:hydrawiki/hydra-config.git",
	"extension_blob": "git@gitlab.com:hydrawiki/third-party-extensions.git",
	"skin_blob": "git@gitlab.com:hydrawiki/third-party-skins.git",
	"extensions": {
		"AJAXPoll": "git@gitlab.com:hydrawiki/extensions/ajaxpoll.git",
		"AllSites": "git@gitlab.com:hydrawiki/extensions/allsites.git",
		"ArticlePageDataDiag": "git@gitlab.com:hydrawiki/extensions/articlepagedatadiag.git",
		"BunnyEars": "git@gitlab.com:hydrawiki/extensions/bunnyears.git",
		"CacheBreaker": "git@gitlab.com:hydrawiki/extensions/CacheBreaker.git",
		"Cargo": "git@gitlab.com:hydrawiki/extensions/cargo.git",
		"CategorySkins": "git@gitlab.com:hydrawiki/extensions/categoryskins.git",
		"Catisect": "git@gitlab.com:hydrawiki/extensions/catisect.git",
		"CharacterEscapes": "git@gitlab.com:hydrawiki/extensions/characterescapes.git",
		"Cheevos": "git@gitlab.com:hydrawiki/extensions/cheevos.git",
		"ClaimWiki": "git@gitlab.com:hydrawiki/extensions/claimwiki.git",
		"Countdown": "git@gitlab.com:hydrawiki/extensions/countdown.git",
		"Crusher": "git@gitlab.com:hydrawiki/extensions/Crusher.git",
		"CurseProfile": "git@gitlab.com:hydrawiki/extensions/curseprofile.git",
		"CurseTwitter": "git@gitlab.com:hydrawiki/extensions/CurseTwitter.git",
		"DynamicPageList": "git@gitlab.com:hydrawiki/extensions/DynamicPageList.git",
		"DynamicSettings": "git@gitlab.com:hydrawiki/extensions/dynamicsettings.git",
		"EmbedVideo": "git@gitlab.com:hydrawiki/extensions/EmbedVideo.git",
		"EvonyCalculator": "git@gitlab.com:hydrawiki/extensions/evonycalculator.git",
		"FandomGcs": "git@gitlab.com:hydrawiki/extensions/fandomgcs.git",
		"GlobalBlock": "git@gitlab.com:hydrawiki/extensions/globalblock.git",
		"GuildWikiSkills": "git@gitlab.com:hydrawiki/extensions/guildwikiskills.git",
		"HeaderTabs": "git@gitlab.com:hydrawiki/extensions/headertabs.git",
		"Helios": "git@gitlab.com:hydrawiki/extensions/helios.git",
		"HydraCore": "git@gitlab.com:hydrawiki/extensions/hydracore.git",
		"Hydralytics": "git@gitlab.com:hydrawiki/extensions/hydralytics.git",
		"HydraAuth": "git@gitlab.com:hydrawiki/extensions/hydraauth.git",
		"ImageSizeInfoFunctions": "git@gitlab.com:hydrawiki/extensions/ImageSizeInfoFunctions.git",
		"JavascriptSlideshow": "git@gitlab.com:hydrawiki/extensions/javascriptslideshow.git",
		"Loops": "git@gitlab.com:hydrawiki/extensions/Loops.git",
		"LuaCache": "git@gitlab.com:hydrawiki/extensions/LuaCache.git",
		"Meeseeks": "git@gitlab.com:hydrawiki/extensions/meeseeks.git",
		"NoTitle": "git@gitlab.com:hydrawiki/extensions/notitle.git",
		"Numbertext": "git@gitlab.com:hydrawiki/extensions/numbertext.git",
		"OpenGraphMeta": "git@gitlab.com:hydrawiki/extensions/opengraphmeta.git",
		"PageForms": "git@gitlab.com:hydrawiki/extensions/pageforms.git",
		"ParserPower": "git@gitlab.com:hydrawiki/extensions/ParserPower.git",
		"PDFEmbed": "git@gitlab.com:hydrawiki/extensions/PDFEmbed.git",
		"PvXCode": "git@gitlab.com:hydrawiki/extensions/pvxcode.git",
		"PvXRate": "git@gitlab.com:hydrawiki/extensions/pvxrate.git",
		"RSSPie": "git@gitlab.com:hydrawiki/extensions/rsspie.git",
		"RandomImage": "git@gitlab.com:hydrawiki/extensions/randomimage.git",
		"RedisCache": "git@gitlab.com:hydrawiki/extensions/RedisCache.git",
		"RedisSessions": "git@gitlab.com:hydrawiki/extensions/RedisSessions.git",
		"RegexFunctions": "git@gitlab.com:hydrawiki/extensions/regexfunctions.git",
		"Reverb": "git@gitlab.com:hydrawiki/extensions/reverb.git",
		"Roadblock": "git@gitlab.com:hydrawiki/extensions/roadblock.git",
		"SEO": "git@gitlab.com:hydrawiki/extensions/seo.git",
		"SearchLogger": "git@gitlab.com:hydrawiki/extensions/SearchLogger.git",
		"ShopVac": "git@gitlab.com:hydrawiki/extensions/shopvac.git",
		"SlideBoxLightShow": "git@gitlab.com:hydrawiki/extensions/SlideBoxLightShow.git",
		"Social": "git@gitlab.com:hydrawiki/extensions/social.git",
		"SpriteSheet": "git@gitlab.com:hydrawiki/extensions/SpriteSheet.git",
		"Streamer": "git@gitlab.com:hydrawiki/extensions/Streamer.git",
		"Subscription": "git@gitlab.com:hydrawiki/extensions/subscription.git",
		"SyncService": "git@gitlab.com:hydrawiki/extensions/syncservice.git",
		"Tabber": "git@gitlab.com:hydrawiki/extensions/Tabber.git",
		"ThanksMeToo": "git@gitlab.com:hydrawiki/extensions/thanksmetoo.git",
		"TopContributors": "git@gitlab.com:hydrawiki/extensions/topcontributors.git",
		"Track": "git@gitlab.com:hydrawiki/extensions/track.git",
		"Twiggy": "git@gitlab.com:hydrawiki/extensions/Twiggy.git",
		"UploadFields": "git@gitlab.com:hydrawiki/extensions/UploadFields.git",
		"UploadWizard": "git@gitlab.com:hydrawiki/extensions/UploadWizard.git",
		"UserModeration": "git@gitlab.com:hydrawiki/extensions/usermoderation.git",
		"UserFixer": "git@github.com:Wikia/mediawiki-extensions-UserFixer.git",
		"UsingData": "git@gitlab.com:hydrawiki/extensions/usingdata.git"
	},
	"skins": {
		"Exvius": "git@gitlab.com:hydrawiki/skins/exvius.git",
		"Hydra": "git@gitlab.com:hydrawiki/skins/hydra.git",
		"HydraDark": "git@gitlab.com:hydrawiki/skins/hydradark.git"
	}
}
